PC_Testbench.vcd
$date
	Wed Apr 10 08:43:41 2024
$end

$version
	Synopsys VCS version R-2020.12-SP2_Full64
$end

$timescale
	1s
$end

$comment Csum: 1 854b92e1d5b64c92 $end


$scope module PC_Testbench $end

$scope module UUT $end
$var reg 1 ! clk $end
$var reg 1 " rst $end
$var reg 32 # oldpc [31:0] $end
$var reg 32 $ newpc [31:0] $end
$upscope $end

$upscope $end

$enddefinitions $end

#0
$dumpvars
bxxxxxxxxxxxxxxxxxxxxxxxxxxxxxxxx $
b00000000000000000000000000000000 #
0!
1"
$end
#5
1!
b00000000000000000000000000000000 $
#10
0"
0!
#15
1!
#20
0!
#25
1!
#30
0!
1!
#35
0!
#40
b00000000000000000000000000000100 #
1!
0!
b00000000000000000000000000000100 $
#45
1!
#50
0!
1!
#55
0!
#60
b00000000000000000000000000001000 #
1!
0!
b00000000000000000000000000001000 $
#65
1!
#70
0!
1!
#75
0!
#80
b00000000000000000000000000001100 #
1!
0!
b00000000000000000000000000001100 $
#85
1!
#90
0!
1!
#95
0!
#100
b00000000000000000000000000010000 #
1!
0!
b00000000000000000000000000010000 $
#105
1!
#110
0!
1!
#115
0!
#120
b00000000000000000000000000010100 #
1!
0!
b00000000000000000000000000010100 $
#125
1!
#130
0!
1!
#135
0!
#140
b00000000000000000000000000011000 #
1!
0!
b00000000000000000000000000011000 $
#145
1!
#150
0!
1!
#155
0!
#160
b00000000000000000000000000011100 #
1!
0!
b00000000000000000000000000011100 $
#165
1!
#170
0!
1!
#175
0!
#180
b00000000000000000000000000100000 #
1!
0!
b00000000000000000000000000100000 $
#185
1!
#190
0!
1!
#195
0!
#200
b00000000000000000000000000100100 #
1!
0!
b00000000000000000000000000100100 $
#205
1!
#210
0!
1!
#215
0!
#220
b00000000000000000000000000101000 #
